[
	{
		"name": "Heart Damage:",
		"imageFile": "imgFile name",
		"description": ""
	},
	{
		"name": "Shell Damage:",
		"imageFile": "",
		"description": ""
	},
	{
		"name": "Pocket Damage:",
		"imageFile": "",
		"description": ""
	},
	{
		"name": "Misc. Damage - Wedge:",
		"imageFile": "",
		"description": ""
	},
	{
		"name": "Misc. Damage - Section:",
		"imageFile": "",
		"description": ""
	},
	{
		"name": "Misc. Damage - Slice:",
		"imageFile": "",
		"description": ""
	},
	{
		"name": "Woodpecker Cavity:",
		"imageFile": "",
		"description": ""
	},
	{
		"name": "Bolt Hole:",
		"imageFile": "",
		"description": ""
	}
]