[
	{
		"name": "damageTypesArr.json",
		"description": "Collection of damage types."
	},
	{
		"name": "woodSpeciesArr.json",
		"description": "Collection of wood species."
	},
	{
		"name": "varConstantsArr.json",
		"description": "Set of various constants."
	},
	{
		"name": "errorMessages.json",
		"description": "Error messages."
	},
	{
		"name": "poleClassLoadUsage.json",
		"description": "Contains Pole - Class Max Load - Industry info"
	}	
]

